module gitlab.com/flightfactor/cloudflare-aws-sdk

go 1.19

require (
	github.com/aws/aws-sdk-go-v2 v1.21.0
	github.com/aws/aws-sdk-go-v2/config v1.18.38
	github.com/aws/aws-sdk-go-v2/credentials v1.13.36
	github.com/aws/aws-sdk-go-v2/feature/s3/manager v1.11.82
	github.com/aws/aws-sdk-go-v2/service/s3 v1.38.5
)

require (
	github.com/aws/aws-sdk-go-v2/aws/protocol/eventstream v1.4.13 // indirect
	github.com/aws/aws-sdk-go-v2/feature/ec2/imds v1.13.11 // indirect
	github.com/aws/aws-sdk-go-v2/internal/configsources v1.1.41 // indirect
	github.com/aws/aws-sdk-go-v2/internal/endpoints/v2 v2.4.35 // indirect
	github.com/aws/aws-sdk-go-v2/internal/ini v1.3.42 // indirect
	github.com/aws/aws-sdk-go-v2/internal/v4a v1.1.4 // indirect
	github.com/aws/aws-sdk-go-v2/service/internal/accept-encoding v1.9.14 // indirect
	github.com/aws/aws-sdk-go-v2/service/internal/checksum v1.1.36 // indirect
	github.com/aws/aws-sdk-go-v2/service/internal/presigned-url v1.9.35 // indirect
	github.com/aws/aws-sdk-go-v2/service/internal/s3shared v1.15.4 // indirect
	github.com/aws/aws-sdk-go-v2/service/sso v1.13.6 // indirect
	github.com/aws/aws-sdk-go-v2/service/ssooidc v1.15.5 // indirect
	github.com/aws/aws-sdk-go-v2/service/sts v1.21.5 // indirect
	github.com/aws/smithy-go v1.14.2 // indirect
	github.com/jmespath/go-jmespath v0.4.0 // indirect
)
